Кафе: 1468
Продукты: 7281
Доставка еды: 650
Транспорт: 2366
Хоз. товары: 1461
Косметика и уход: 950
Одежда: 0
Подписки: 40
Интернет/моб: 200
Здоровье: 355
Кошка: 0
Инвестиции: 25000
Долги: 1500
Анины расходники: 1627
Книги: 823
Развлечения: 600
Квартплата: 0
Путешествия: 610